<svg id="Group_91" data-name="Group 91" xmlns="http://www.w3.org/2000/svg" width="19.342" height="19.342" viewBox="0 0 19.342 19.342">
  <g id="Group_64" data-name="Group 64">
    <g id="Group_63" data-name="Group 63">
      <ellipse id="Ellipse_1" data-name="Ellipse 1" cx="0.5" cy="1.5" rx="0.5" ry="1.5" transform="translate(14 6)" fill="#242635"/>
      <path id="Path_112" data-name="Path 112" d="M16.32,1.511h-.982V.756a.756.756,0,1,0-1.511,0v.756H10.389V.756a.756.756,0,1,0-1.511,0v.756h-3.4V.756a.756.756,0,0,0-1.511,0v.756H3.022A3.026,3.026,0,0,0,0,4.533V16.32a3.026,3.026,0,0,0,3.022,3.022H8.8a.756.756,0,1,0,0-1.511H3.022A1.513,1.513,0,0,1,1.511,16.32V4.533A1.513,1.513,0,0,1,3.022,3.022h.944v.756a.756.756,0,1,0,1.511,0V3.022h3.4v.756a.756.756,0,1,0,1.511,0V3.022h3.438v.756a.756.756,0,1,0,1.511,0V3.022h.982a1.513,1.513,0,0,1,1.511,1.511V8.84a.756.756,0,1,0,1.511,0V4.533A3.026,3.026,0,0,0,16.32,1.511Z" fill="#242635"/>
      <path id="Path_113" data-name="Path 113" d="M274.571,270a4.571,4.571,0,1,0,4.571,4.571A4.576,4.576,0,0,0,274.571,270Zm0,7.631a3.06,3.06,0,1,1,3.06-3.06A3.063,3.063,0,0,1,274.571,277.631Z" transform="translate(-259.8 -259.8)" fill="#242635"/>
      <path id="Path_114" data-name="Path 114" d="M372.851,331.549h-.34v-.793a.756.756,0,1,0-1.511,0V332.3a.756.756,0,0,0,.756.756h1.1a.756.756,0,0,0,0-1.511Z" transform="translate(-356.985 -317.534)" fill="#242635"/>
      <ellipse id="Ellipse_2" data-name="Ellipse 2" cx="0.5" cy="1.5" rx="0.5" ry="1.5" transform="translate(11 6)" fill="#242635"/>
      <circle id="Ellipse_3" data-name="Ellipse 3" cx="0.5" cy="0.5" r="0.5" transform="translate(8 11)" fill="#242635"/>
      <ellipse id="Ellipse_4" data-name="Ellipse 4" cx="0.5" cy="1.5" rx="0.5" ry="1.5" transform="translate(4 6)" fill="#242635"/>
      <circle id="Ellipse_5" data-name="Ellipse 5" cx="0.5" cy="0.5" r="0.5" transform="translate(4 11)" fill="#242635"/>
      <circle id="Ellipse_6" data-name="Ellipse 6" cx="0.5" cy="0.5" r="0.5" transform="translate(4 14)" fill="#242635"/>
      <circle id="Ellipse_7" data-name="Ellipse 7" cx="0.5" cy="0.5" r="0.5" transform="translate(8 14)" fill="#242635"/>
      <ellipse id="Ellipse_8" data-name="Ellipse 8" cx="0.5" cy="1.5" rx="0.5" ry="1.5" transform="translate(8 6)" fill="#242635"/>
    </g>
  </g>
</svg>
