<svg id="Group_134" data-name="Group 134" xmlns="http://www.w3.org/2000/svg" width="19" height="19" viewBox="0 0 19 19">
  <path id="Path_162" data-name="Path 162" d="M16.218,2.782A9.5,9.5,0,0,0,2.782,16.218,9.5,9.5,0,0,0,16.218,2.782ZM9.5,17.887A8.387,8.387,0,1,1,17.887,9.5,8.4,8.4,0,0,1,9.5,17.887Z" fill="#fff"/>
  <path id="Path_163" data-name="Path 163" d="M99.047,103.6a.524.524,0,0,0-.688.267.517.517,0,0,0,.269.683,4.7,4.7,0,1,1-3.762,0,.517.517,0,0,0,.269-.683.524.524,0,0,0-.688-.267,5.748,5.748,0,1,0,4.6,0Z" transform="translate(-87.248 -99.29)" fill="#fff"/>
  <path id="Path_164" data-name="Path 164" d="M241.618,77.185a.619.619,0,0,0,.618-.618V71.618a.618.618,0,0,0-1.237,0v4.948A.618.618,0,0,0,241.618,77.185Z" transform="translate(-232.118 -68.072)" fill="#fff"/>
</svg>
