<svg id="keyboard_arrow_right-24px" xmlns="http://www.w3.org/2000/svg" width="28.365" height="28.365" viewBox="0 0 28.365 28.365">
  <path id="Path_2039" data-name="Path 2039" d="M0,0H28.365V28.365H0Z" fill="none"/>
  <path id="Path_2040" data-name="Path 2040" d="M8.59,18.516,14,13.091,8.59,7.666,10.256,6l7.091,7.091-7.091,7.091Z" transform="translate(1.562 1.091)"/>
</svg>
