<svg id="attachment-24px" xmlns="http://www.w3.org/2000/svg" width="24" height="24" viewBox="0 0 24 24">
  <path id="Path_1844" data-name="Path 1844" d="M0,0H24V24H0Z" fill="none"/>
  <path id="Path_1845" data-name="Path 1845" d="M18.5,16H7A4,4,0,0,1,7,8H19.5a2.5,2.5,0,0,1,0,5H9a1,1,0,0,1,0-2h9.5V9.5H9a2.5,2.5,0,0,0,0,5H19.5a4,4,0,0,0,0-8H7a5.5,5.5,0,0,0,0,11H18.5Z"/>
</svg>
