<?xml version="1.0" encoding="utf-8"?>
<!-- Generator: Adobe Illustrator 24.0.1, SVG Export Plug-In . SVG Version: 6.00 Build 0)  -->
<svg version="1.1" id="Layer_1" xmlns="http://www.w3.org/2000/svg" xmlns:xlink="http://www.w3.org/1999/xlink" x="0px" y="0px"
	 viewBox="0 0 113 92" style="enable-background:new 0 0 113 92;" xml:space="preserve">
<image style="overflow:visible;" width="113" height="92" xlink:href="logo.png" >
</image>
</svg>
