<svg xmlns="http://www.w3.org/2000/svg" width="15" height="11" viewBox="0 0 15 11">
  <path id="Polygon_9" data-name="Polygon 9" d="M6.674,1.212a1,1,0,0,1,1.652,0l5.608,8.225A1,1,0,0,1,13.108,11H1.892a1,1,0,0,1-.826-1.563Z" transform="translate(15 11) rotate(180)" fill="#bfcbd7"/>
</svg>
