<svg xmlns="http://www.w3.org/2000/svg" width="35.431" height="34.701" viewBox="0 0 35.431 34.701">
  <g id="Group_15" data-name="Group 15" transform="translate(-1798.284 -71)" opacity="0.22">
    <path id="Logout_Rounded_Left-595b40b85ba036ed117dd853" data-name="Logout Rounded Left-595b40b85ba036ed117dd853" d="M18.263,1A16.972,16.972,0,0,0,5.71,6.47,1.443,1.443,0,1,0,7.817,8.442,14.133,14.133,0,0,1,18.263,3.869a14.346,14.346,0,0,1,0,28.693A14.134,14.134,0,0,1,7.772,27.944a1.449,1.449,0,0,0-2.04-.067,1.423,1.423,0,0,0-.067,2.017A17.18,17.18,0,1,0,18.263,1Z" transform="translate(1834.215 69.79) rotate(90)" fill="#adbac7" stroke="#adbac7" stroke-width="1"/>
    <rect id="Rectangle_6" data-name="Rectangle 6" width="5" height="16" rx="2.5" transform="translate(1814 71)" fill="#adbac7"/>
  </g>
</svg>
