<svg xmlns="http://www.w3.org/2000/svg" width="22.642" height="21.997" viewBox="0 0 22.642 21.997">
  <g id="Group_15" data-name="Group 15" transform="translate(0.5)" opacity="0.42">
    <path id="Logout_Rounded_Left-595b40b85ba036ed117dd853" data-name="Logout Rounded Left-595b40b85ba036ed117dd853" d="M8.161,0A10.668,10.668,0,0,0,.271,3.438.907.907,0,1,0,1.6,4.678,8.883,8.883,0,0,1,8.161,1.8a9.017,9.017,0,0,1,0,18.035,8.884,8.884,0,0,1-6.594-2.9.911.911,0,0,0-1.282-.042.894.894,0,0,0-.042,1.268A10.8,10.8,0,1,0,8.161,0Z" transform="translate(21.642 2.557) rotate(90)" stroke="#000" stroke-width="1"/>
    <rect id="Rectangle_6" data-name="Rectangle 6" width="3.143" height="10.057" rx="1.571" transform="translate(9.564 0)"/>
  </g>
</svg>
