<svg xmlns="http://www.w3.org/2000/svg" width="62.25" height="62.25" viewBox="0 0 62.25 62.25">
  <g id="keyboard_arrow_left-24px" transform="translate(0 0)">
    <path id="Path_2043" data-name="Path 2043" d="M0,0H62.25V62.25H0Z" transform="translate(0 0)" fill="none"/>
    <path id="Path_2044" data-name="Path 2044" d="M27.22,33.468,15.34,21.563,27.22,9.657,23.563,6,8,21.563,23.563,37.125Z" transform="translate(12.75 9.563)"/>
  </g>
</svg>
