<svg xmlns="http://www.w3.org/2000/svg" width="356.583" height="201.065" viewBox="0 0 356.583 201.065">
  <g id="Group_5663" data-name="Group 5663" transform="translate(-802.999 -420)">
    <g id="Group_5662" data-name="Group 5662" transform="translate(802.999 420)">
      <path id="Union_4" data-name="Union 4" d="M132.265,85.75s.139-.332.4-.952H88.2c.273.62.418.952.418.952H0s34.59-82.428,46.979-74.8c5.986,3.683,15.909,21.272,24.568,38.469C86.194,24.222,105.441-4.372,114.921.56c8.441,4.391,22.776,26.367,34.76,46.772,7.47-15.2,15.63-29.864,20.7-33.145,11.244-7.338,42.882,71.563,42.882,71.563Z" transform="translate(75.758 113.886)" fill="#f1f8fc"/>
      <g id="Group_5635" data-name="Group 5635" transform="translate(172.764 102.438)">
        <rect id="Rectangle_1208" data-name="Rectangle 1208" width="5.718" height="96.245" fill="#d0f4f2"/>
      </g>
      <g id="Group_5636" data-name="Group 5636" transform="translate(169.906 102.438)">
        <rect id="Rectangle_1209" data-name="Rectangle 1209" width="4.765" height="96.245" fill="#fff"/>
      </g>
      <g id="Group_5637" data-name="Group 5637" transform="translate(132.742 20.488)">
        <path id="Path_1801" data-name="Path 1801" d="M288.659,59.5H265.5a14.319,14.319,0,0,0-9.91,4.1L239.3,79.988a13.912,13.912,0,0,0-4.1,9.91v23.156a14.32,14.32,0,0,0,4.1,9.91l16.39,16.39a13.912,13.912,0,0,0,9.91,4.1h23.156a14.32,14.32,0,0,0,9.91-4.1l16.39-16.39a13.912,13.912,0,0,0,4.1-9.91V89.9a14.32,14.32,0,0,0-4.1-9.91L298.664,63.6A14.547,14.547,0,0,0,288.659,59.5Z" transform="translate(-235.2 -59.5)" fill="#00a464"/>
      </g>
      <g id="Group_5639" data-name="Group 5639" transform="translate(160.853 198.207)">
        <path id="Path_1805" data-name="Path 1805" d="M288.046,248.859H266.129a1.429,1.429,0,1,1,0-2.859h21.917a1.429,1.429,0,0,1,0,2.859Z" transform="translate(-264.7 -246)" fill="#191818"/>
      </g>
      <g id="Group_5640" data-name="Group 5640" transform="translate(116.066 198.207)">
        <path id="Path_1806" data-name="Path 1806" d="M252.481,248.859H219.129a1.429,1.429,0,1,1,0-2.859h33.352a1.429,1.429,0,1,1,0,2.859Z" transform="translate(-217.7 -246)" fill="#191818"/>
      </g>
      <g id="Group_5641" data-name="Group 5641" transform="translate(68.42 198.207)">
        <path id="Path_1807" data-name="Path 1807" d="M204.387,248.859H169.129a1.429,1.429,0,1,1,0-2.859h35.258a1.429,1.429,0,1,1,0,2.859Z" transform="translate(-167.7 -246)" fill="#191818"/>
      </g>
      <g id="Group_5642" data-name="Group 5642" transform="translate(193.252 198.207)">
        <path id="Path_1808" data-name="Path 1808" d="M394.468,248.859H300.129a1.429,1.429,0,1,1,0-2.859h94.339a1.429,1.429,0,1,1,0,2.859Z" transform="translate(-298.7 -246)" fill="#191818"/>
      </g>
      <g id="Group_5643" data-name="Group 5643" transform="translate(177.529 101.485)">
        <path id="Path_1809" data-name="Path 1809" d="M283.629,243.127A1.466,1.466,0,0,1,282.2,241.7V145.929a1.429,1.429,0,0,1,2.859,0V241.7A1.466,1.466,0,0,1,283.629,243.127Z" transform="translate(-282.2 -144.5)" fill="#191818"/>
      </g>
      <g id="Group_5644" data-name="Group 5644" transform="translate(167.047 101.485)">
        <path id="Path_1810" data-name="Path 1810" d="M272.629,243.127A1.466,1.466,0,0,1,271.2,241.7V145.929a1.429,1.429,0,1,1,2.859,0V241.7A1.466,1.466,0,0,1,272.629,243.127Z" transform="translate(-271.2 -144.5)" fill="#191818"/>
      </g>
      <g id="Group_5645" data-name="Group 5645" transform="translate(131.312 20.964)">
        <path id="Path_1811" data-name="Path 1811" d="M289.541,142.9H260.668A6.638,6.638,0,0,1,256,141l-20.392-20.392a6.475,6.475,0,0,1-1.906-4.669V87.063a6.638,6.638,0,0,1,1.906-4.669L256,61.906A6.475,6.475,0,0,1,260.668,60h28.873a6.638,6.638,0,0,1,4.669,1.906L314.6,82.3a6.475,6.475,0,0,1,1.906,4.669v28.873a6.638,6.638,0,0,1-1.906,4.669L294.21,141A6.475,6.475,0,0,1,289.541,142.9ZM260.668,62.859A4.1,4.1,0,0,0,258,63.907L237.607,84.3a3.743,3.743,0,0,0-1.048,2.668v28.873a4.1,4.1,0,0,0,1.048,2.668L258,138.9a3.743,3.743,0,0,0,2.668,1.048h28.873a4.1,4.1,0,0,0,2.668-1.048L312.6,118.509a3.743,3.743,0,0,0,1.048-2.668V87.063a4.1,4.1,0,0,0-1.048-2.668L292.209,64a3.743,3.743,0,0,0-2.668-1.048H260.668Z" transform="translate(-233.7 -60)" fill="#191818"/>
      </g>
      <g id="Group_5646" data-name="Group 5646" transform="translate(141.699 31.446)">
        <path id="Path_1812" data-name="Path 1812" d="M283.765,132.94H267.47a10.937,10.937,0,0,1-8-3.335l-11.53-11.53a11.321,11.321,0,0,1-3.335-8V93.87a10.937,10.937,0,0,1,3.335-8l11.53-11.53a11.321,11.321,0,0,1,8-3.335h16.295a10.937,10.937,0,0,1,8,3.335l11.53,11.53a11.321,11.321,0,0,1,3.335,8v16.295a10.937,10.937,0,0,1-3.335,8l-11.53,11.53A11.234,11.234,0,0,1,283.765,132.94ZM267.47,73.859a8.354,8.354,0,0,0-6,2.478l-11.53,11.53a8.354,8.354,0,0,0-2.478,6v16.295a8.354,8.354,0,0,0,2.478,6l11.53,11.53a8.354,8.354,0,0,0,6,2.478h16.295a8.354,8.354,0,0,0,6-2.478l11.53-11.53a8.354,8.354,0,0,0,2.478-6V93.87a8.354,8.354,0,0,0-2.478-6l-11.53-11.53a8.354,8.354,0,0,0-6-2.478Z" transform="translate(-244.6 -71)" fill="#191818"/>
      </g>
      <g id="Group_5648" data-name="Group 5648" transform="translate(137.928 25.545)">
        <g id="Group_5647" data-name="Group 5647" transform="translate(0)">
          <path id="Path_1813" data-name="Path 1813" d="M243.08,86.527l8.576-8.576c2.763-2.763,5.432-6.289,8.576-8.576,3.716-2.668,10.291-1.429,14.484-1.429h12.96a1.431,1.431,0,0,0,0-2.859H273.764c-3.907,0-9.529-.953-13.246.667s-6.861,6.1-9.624,8.862l-9.91,9.91c-1.144,1.239.858,3.24,2.1,2Z" transform="translate(-240.643 -64.808)" fill="#92ecae"/>
        </g>
      </g>
      <g id="Group_5649" data-name="Group 5649" transform="translate(168 86.141)">
        <path id="Path_1814" data-name="Path 1814" d="M273.629,140.883a1.385,1.385,0,0,1-1.429-1.334,1.541,1.541,0,0,1,1.334-1.525l13.627-.762a10.84,10.84,0,0,0,6.861-2.859l6.194-5.622a1.417,1.417,0,1,1,1.906,2.1l-6.194,5.622a14.482,14.482,0,0,1-8.672,3.621l-13.627.762Z" transform="translate(-272.2 -128.397)" fill="#92ecae"/>
      </g>
      <g id="Group_5650" data-name="Group 5650" transform="translate(173.05 81.975)">
        <path id="Path_1815" data-name="Path 1815" d="M278.453,131.148a.94.94,0,0,1-.953-.858,1.037,1.037,0,0,1,.858-1.048l8.386-.476a.728.728,0,0,0,.476-.191l5.908-4.383a.953.953,0,0,1,1.143,1.525l-5.908,4.383a2.992,2.992,0,0,1-1.525.572l-8.386.476Z" transform="translate(-277.5 -124.026)" fill="#92ecae"/>
      </g>
      <g id="Group_5651" data-name="Group 5651" transform="translate(170.001 87.096)">
        <path id="Path_1816" data-name="Path 1816" d="M276.206,130.353a.953.953,0,1,1-.953-.953A1.025,1.025,0,0,1,276.206,130.353Z" transform="translate(-274.3 -129.4)" fill="#92ecae"/>
      </g>
      <path id="Union_2" data-name="Union 2" d="M19.535,41.833a5.531,5.531,0,0,1-5.526-5.528v-1.43a5.51,5.51,0,0,1,.374-2H6.194a6.194,6.194,0,1,1,0-12.388H24.216a6.206,6.206,0,0,1,5.9-8.1H41.643A6.194,6.194,0,0,1,41.643,0h59.845a6.194,6.194,0,1,1,0,12.388h27.538a6.194,6.194,0,1,1,0,12.388h-18.02a6.2,6.2,0,0,1-5.9,8.1h-4.281a5.51,5.51,0,0,1,.374,2v1.43a5.531,5.531,0,0,1-5.528,5.528Z" transform="translate(0)" fill="#f1f8fc"/>
      <path id="Union_1" data-name="Union 1" d="M41.547,38.4a5.531,5.531,0,0,1-5.525-5.528V31.541a5.51,5.51,0,0,1,.374-2H6.194a6.194,6.194,0,1,1,0-12.388H24.247a6.261,6.261,0,0,1,.317-4.764H10.579A6.194,6.194,0,1,1,10.579,0H70.422a6.182,6.182,0,0,1,6.194,6.194,6.066,6.066,0,0,1-.664,2.764h53.073a6.194,6.194,0,1,1,0,12.388H110.974a6.185,6.185,0,0,1,.329,2,6.08,6.08,0,0,1-.62,2.669h7a5.531,5.531,0,0,1,5.527,5.526v1.43a5.512,5.512,0,0,1-5.527,5.433Z" transform="translate(221.363 61.844)" fill="#f1f8fc"/>
      <path id="Union_3" data-name="Union 3" d="M6.193,23.918a6.195,6.195,0,0,1,0-12.389H19.714A6.2,6.2,0,0,1,22.869,0H80.236a6.194,6.194,0,0,1,0,12.387H66.717a6.183,6.183,0,0,1,3.037,5.337,6.392,6.392,0,0,1-6.291,6.194Z" transform="translate(11.054 114.541)" fill="#f1f8fc"/>
    </g>
    <text id="wrong" transform="translate(952.19 485.033)" fill="#fff" stroke="rgba(0,0,0,0)" stroke-width="1" font-size="11" font-family="Poppins-Bold, Poppins" font-weight="700"><tspan x="0" y="0">WRONG</tspan></text>
  </g>
</svg>
