<svg xmlns="http://www.w3.org/2000/svg" width="21.629" height="20.645" viewBox="0 0 21.629 20.645">
  <g id="Group_1" data-name="Group 1" transform="translate(-15.957 0)">
    <path id="Path_1" data-name="Path 1" d="M16.94,20.646h4.916a.928.928,0,0,0,.983-.86V12.043h4.916a.928.928,0,0,0,.983-.86.928.928,0,0,0-.983-.86H22.839a1.858,1.858,0,0,0-1.966,1.72v6.882H17.923V9.819l8.848-7.742L35.62,9.819v9.106H32.67V16.344a.992.992,0,0,0-1.966,0v3.441a.928.928,0,0,0,.983.86H36.6a.928.928,0,0,0,.983-.86V9.463a.81.81,0,0,0-.288-.608L27.466.252a1.085,1.085,0,0,0-1.39,0l-9.831,8.6a.81.81,0,0,0-.288.608V19.785A.928.928,0,0,0,16.94,20.646Z" transform="translate(0 0)" fill="#384057"/>
    <path id="Path_2" data-name="Path 2" d="M256.156,194.786a.823.823,0,0,0,.822-.822v-1.644a.822.822,0,1,0-1.644,0v1.644A.823.823,0,0,0,256.156,194.786Z" transform="translate(-224.389 -181.083)" fill="#384057"/>
  </g>
</svg>
