<svg xmlns="http://www.w3.org/2000/svg" width="24.444" height="24.334" viewBox="0 0 24.444 24.334">
  <g id="Group_182" data-name="Group 182" transform="translate(0 -0.666)">
    <path id="Path_225" data-name="Path 225" d="M21.758,131.8a2.661,2.661,0,0,1-2.377-1.466,2.667,2.667,0,0,1-4.763,0,2.67,2.67,0,0,1-4.767,0,2.671,2.671,0,0,1-4.768,0,2.692,2.692,0,0,1-2.4,1.466,2.812,2.812,0,0,1-1.288-.323v9.9H0v2.631H24.417v-2.631H23.1v-9.948a2.645,2.645,0,0,1-1.343.37Zm-9.509,1.439h8.139v4.028H12.249Zm-8.139,0H9.536v6.741H4.111Z" transform="translate(0 -119.006)" fill="#384057"/>
    <path id="Path_226" data-name="Path 226" d="M297.31,116.619l0,0s0,0,0,0Z" transform="translate(-272.866 -106.417)" fill="#384057"/>
    <path id="Path_227" data-name="Path 227" d="M.333,116.622h0s0,0,0,0Z" transform="translate(-0.306 -106.42)" fill="#384057"/>
    <path id="Path_228" data-name="Path 228" d="M5.922,10.12,7.65,4.694H11.3l-.745,5.426h4.91l-.727-5.426h3.757l1.6,5.426h5.082L22.558,4.694V.666H3.567V4.694L.841,10.12Z" transform="translate(-0.772 0)" fill="#384057"/>
  </g>
</svg>
