<svg xmlns="http://www.w3.org/2000/svg" width="25.26" height="27" viewBox="0 0 25.26 27">
  <g id="Group_105" data-name="Group 105" transform="translate(-16.5)">
    <path id="Path_138" data-name="Path 138" d="M262.543,274a6.043,6.043,0,1,0,6.094,6.043A6.05,6.05,0,0,0,262.543,274Zm1.855,5.312-2.031,2.438a.762.762,0,0,1-1.266-.147l-.812-1.625a.762.762,0,0,1,1.363-.681l.292.583,1.286-1.543a.762.762,0,1,1,1.17.975Z" transform="translate(-226.877 -259.086)" fill="#384057"/>
    <path id="Path_139" data-name="Path 139" d="M34.4,4.518,31.312,1.19l0,0A3.759,3.759,0,0,0,28.591,0H18.785A2.336,2.336,0,0,0,16.5,2.379V22.945a2.336,2.336,0,0,0,2.285,2.379h9.77a8.056,8.056,0,0,1-1.391-4.547A7.735,7.735,0,0,1,34.73,12.9a7.42,7.42,0,0,1,.762.039V7.295A4.028,4.028,0,0,0,34.4,4.518ZM24.574,17.711H20.512a.794.794,0,0,1,0-1.586h4.063a.794.794,0,0,1,0,1.586Zm0-4.23H20.512a.794.794,0,0,1,0-1.586h4.063a.794.794,0,0,1,0,1.586Zm0-4.23H20.512a.794.794,0,0,1,0-1.586h4.063a.794.794,0,0,1,0,1.586Zm4.875,4.23h-.812a.794.794,0,0,1,0-1.586h.813a.794.794,0,0,1,0,1.586Zm0-4.23h-.812a.794.794,0,0,1,0-1.586h.813a.794.794,0,0,1,0,1.586Z" fill="#384057"/>
  </g>
</svg>
