<?xml version="1.0" encoding="utf-8"?>
<!-- Generator: Adobe Illustrator 17.0.0, SVG Export Plug-In . SVG Version: 6.00 Build 0)  -->
<!DOCTYPE svg PUBLIC "-//W3C//DTD SVG 1.1//EN" "http://www.w3.org/Graphics/SVG/1.1/DTD/svg11.dtd">
<svg version="1.1" id="Layer_1" xmlns="http://www.w3.org/2000/svg" xmlns:xlink="http://www.w3.org/1999/xlink" x="0px" y="0px"
	 width="17.092px" height="17.091px" viewBox="0 0 17.092 17.091" enable-background="new 0 0 17.092 17.091" xml:space="preserve">
<path fill="#219B70" d="M14.79,2.702L14.73,2.639c-0.002-0.003-0.005-0.006-0.008-0.009l-0.03-0.032
	c-1.623-1.673-3.799-2.595-6.133-2.595c-2.216,0-4.317,0.846-5.916,2.381c-1.646,1.58-2.577,3.707-2.623,5.988
	c-0.046,2.281,0.799,4.443,2.378,6.088c0.075,0.08,0.152,0.156,0.193,0.187l0.05,0.063c0.03,0.028,0.062,0.056,0.093,0.082
	l0.143,0.126c0.109,0.098,0.22,0.197,0.338,0.293c0.078,0.062,0.159,0.123,0.276,0.208c0.123,0.093,0.245,0.185,0.375,0.27
	l0.34,0.209c0.115,0.07,0.23,0.14,0.351,0.204c0.089,0.046,0.178,0.088,0.268,0.13l0.08,0.037c0.117,0.056,0.253,0.121,0.385,0.178
	c0.099,0.042,0.199,0.076,0.299,0.111l0.198,0.07c0.093,0.033,0.181,0.065,0.277,0.095c0.118,0.035,0.238,0.065,0.357,0.095
	l0.198,0.049c0.081,0.021,0.163,0.042,0.247,0.059c0.138,0.028,0.278,0.047,0.421,0.066l0.203,0.028
	c0.067,0.011,0.136,0.021,0.208,0.029c0.279,0.027,0.561,0.042,0.845,0.042c0.284,0,0.565-0.016,0.848-0.042
	c0.061-0.007,0.12-0.017,0.181-0.025l0.245-0.035c0.133-0.019,0.267-0.037,0.404-0.063c0.068-0.015,0.138-0.032,0.207-0.05
	l0.242-0.06c0.118-0.028,0.236-0.058,0.354-0.093c0.097-0.03,0.19-0.064,0.284-0.098l0.172-0.062
	c0.103-0.036,0.212-0.074,0.315-0.117c0.117-0.049,0.232-0.104,0.384-0.178l0.106-0.049c0.086-0.038,0.166-0.074,0.244-0.119
	c0.119-0.063,0.234-0.133,0.396-0.23c0.106-0.062,0.205-0.119,0.299-0.185c0.145-0.094,0.282-0.197,0.416-0.3l0.234-0.177
	c0.145-0.117,0.283-0.239,0.417-0.364l0.166-0.15c1.646-1.576,2.581-3.699,2.631-5.978C17.138,6.472,16.322,4.339,14.79,2.702z
	 M7.878,15.37c-0.052-0.005-0.104-0.013-0.156-0.021l-0.141-0.021c-0.118-0.016-0.235-0.031-0.352-0.055
	c-0.075-0.015-0.145-0.032-0.215-0.05l-0.063-0.016c-0.119-0.028-0.237-0.057-0.351-0.09c-0.063-0.02-0.126-0.041-0.189-0.063
	l-0.102-0.034c-0.097-0.033-0.212-0.074-0.315-0.114c-0.103-0.04-0.198-0.085-0.294-0.129C5.6,14.732,5.51,14.69,5.419,14.643
	c-0.089-0.046-0.203-0.108-0.305-0.171c-0.081-0.047-0.161-0.097-0.24-0.146c-0.106-0.066-0.21-0.137-0.314-0.213
	c-0.066-0.048-0.129-0.097-0.193-0.146c-0.104-0.08-0.207-0.163-0.307-0.25c0.069-1.826,1.245-3.438,2.964-4.061
	c0.955,0.42,2.091,0.419,3.043,0c1.719,0.623,2.895,2.233,2.965,4.059c-0.101,0.088-0.203,0.171-0.31,0.253l-0.194,0.146
	c-0.103,0.074-0.207,0.145-0.316,0.213c-0.062,0.041-0.124,0.078-0.231,0.143l-0.309,0.173c-0.083,0.042-0.165,0.081-0.28,0.136
	c-0.092,0.043-0.189,0.088-0.294,0.128c-0.104,0.041-0.208,0.079-0.312,0.113l-0.298,0.099c-0.112,0.035-0.23,0.063-0.346,0.089
	l-0.128,0.03c-0.052,0.013-0.103,0.025-0.153,0.036c-0.124,0.023-0.25,0.041-0.416,0.063l-0.076,0.011
	c-0.053,0.008-0.105,0.017-0.157,0.021C8.773,15.413,8.319,15.413,7.878,15.37z M9.637,7.976L9.573,8.007
	C9.431,8.086,9.279,8.15,9.123,8.197l0.071,0.239c0,0,0,0,0,0L9.039,8.222C8.993,8.234,8.944,8.242,8.877,8.255
	C8.774,8.273,8.67,8.283,8.517,8.286C8.412,8.283,8.308,8.273,8.164,8.247c-0.04-0.007-0.08-0.014-0.119-0.025L7.98,8.464
	L7.959,8.196c-0.157-0.047-0.308-0.11-0.45-0.189L7.455,7.983C6.472,7.396,6.13,6.124,6.696,5.122
	c0.375-0.666,1.083-1.08,1.848-1.08c0.362,0,0.721,0.094,1.037,0.273c1.019,0.573,1.381,1.868,0.808,2.886
	C10.209,7.52,9.95,7.787,9.637,7.976z M12.344,6.003c-0.043-1.015-0.479-1.953-1.229-2.64c-0.703-0.646-1.616-1.001-2.571-1.001
	c-1.063,0-2.085,0.449-2.804,1.232C4.468,4.981,4.4,7.034,5.534,8.493c-1.389,0.778-2.411,2.042-2.882,3.552
	c-0.837-1.396-1.147-3.029-0.875-4.653C2.081,5.586,3.07,4.005,4.562,2.942C5.731,2.11,7.105,1.671,8.534,1.671
	c2.217,0,4.308,1.077,5.592,2.88c1.586,2.227,1.688,5.17,0.306,7.489c-0.472-1.508-1.493-2.77-2.878-3.547
	C12.104,7.783,12.383,6.91,12.344,6.003z"/>
</svg>
